{
    "result": true,
    "error": null,
    "error_code": null,
    "response": {
        "meta": {
            "page": 1,
            "limit": 10,
            "pages": 2,
            "total": 17
        },
        "entities": [
            {
                "id": 7,
                "name": "Гостиница \"Саранск\"",
                "address": "ул. Коммунистическая, 35",
                "phone": "+7(834)247-88-09",
                "email": "info@hotelsaransk.ru",
                "website": "http://www.hotelsaransk.ru/",
                "latitude": 54.1848,
                "longitude": 45.1842,
                "description": "Гостиница предлагает размещение в номерах различных уровней комфортности, предоставляя уникальное сочетание стоимости и качества предоставляемых услуг. Её месторасположение очень удобно и престижно: она находится в историческом и деловом центре города, рядом с государственными и правительственными учреждениями, банками.",
                "photo_author": null,
                "photo_path": "/trip/place/52d2bb8a0039e/hotelsaransk.jpg",
                "information": null,
                "working_time": "[{\"from\":\"00:00\",\"to\":\"00:00\"},{\"from\":\"00:00\",\"to\":\"00:00\"},{\"from\":\"00:00\",\"to\":\"00:00\"},{\"from\":\"00:00\",\"to\":\"00:00\"},{\"from\":\"00:00\",\"to\":\"00:00\"},{\"from\":\"00:00\",\"to\":\"00:00\"},{\"from\":\"00:00\",\"to\":\"00:00\"}]",
                "rating": 4.3,
                "view_count": 108,
                "recommended_count": 4
            },
            {
                "id": 8,
                "name": "Отель \"Олимпия\"",
                "address": "ул. Титова, д. 23а",
                "phone": "+7(834)224-49-24",
                "email": "olympia-saransk@yandex.ru",
                "website": "http://olympia-saransk.ru/",
                "latitude": 54.1858,
                "longitude": 45.1632,
                "description": "Гостиничный комплекс Олимпия даст вам полное ощущение свободы от городской суеты. Олимпия - это современная гостиница в центре Саранска, расположенная неподалёку от делового центра города и главных достопримечательностей Саранска.",
                "photo_author": null,
                "photo_path": "/trip/place/52d2bfb417165/09_full.jpg",
                "information": "<p><strong>Основные услуги:</strong><span>&nbsp;бесплатный трансфер, проживание, питание, бесплатная пресса, вызов такси.&nbsp;</span><br /><strong>Дополнительные услуги:</strong><span>&nbsp; аренда машин, бильярд , Wi-Fi, ксерокс/факс , кабельное телевидение, конференц-зал, система скидок на посещение спортивно-развлекательного комплекса &laquo;Формула С&raquo;&nbsp;</span><br /><strong>Номерной фонд:</strong><span>&nbsp;40 номеров&nbsp;</span></p>",
                "working_time": "[{\"from\":\"00:00\",\"to\":\"00:00\"},{\"from\":\"00:00\",\"to\":\"00:00\"},{\"from\":\"00:00\",\"to\":\"00:00\"},{\"from\":\"00:00\",\"to\":\"00:00\"},{\"from\":\"00:00\",\"to\":\"00:00\"},{\"from\":\"00:00\",\"to\":\"00:00\"},{\"from\":\"00:00\",\"to\":\"00:00\"}]",
                "rating": 3.5,
                "view_count": 41,
                "recommended_count": 2
            },
            {
                "id": 10,
                "name": "Отель \"Меридиан\"",
                "address": "ул. Богдана Хмельницкого, 34",
                "phone": "+7(800)250-25-13",
                "email": "hotel@meridian13.ru",
                "website": "http://meridian13.ru/",
                "latitude": 54.1862,
                "longitude": 45.1809,
                "description": "«Меридиан» - это отель в Саранске, расположенный в самом центре города. К услугам гостей отеля «Меридиан» - 32 просторных номера высшего класса, выполненных в европейском стиле с индивидуальным дизайнерским решением.",
                "photo_author": null,
                "photo_path": "/trip/place/52d2c2bec7f15/image_3fc14cbd2393911.jpg",
                "information": null,
                "working_time": "[{\"from\":\"00:00\",\"to\":\"00:00\"},{\"from\":\"00:00\",\"to\":\"00:00\"},{\"from\":\"00:00\",\"to\":\"00:00\"},{\"from\":\"00:00\",\"to\":\"00:00\"},{\"from\":\"00:00\",\"to\":\"00:00\"},{\"from\":\"00:00\",\"to\":\"00:00\"},{\"from\":\"00:00\",\"to\":\"00:00\"}]",
                "rating": 5,
                "view_count": 26,
                "recommended_count": 1
            },
            {
                "id": 17,
                "name": "Гостиница \"Макаровская\"",
                "address": "с. Макаровка, Нагорная, д.35",
                "phone": "+7(937)511-78-78",
                "email": "gost-makar@yandex.ru",
                "website": "http://gostinica-makarovskaya.ru/",
                "latitude": 54.1554,
                "longitude": 45.2522,
                "description": "Гостиница Макаровская расположена на территории Макаровского монастыря в с. Макаровка, в 7 минутах езды от аэропорта и 15 минутах от железнодорожного вокзала города Саранска.  Номерной фонд –  51 номер на 100 мест. Имеется ресторан, прачечная, парковка, экскурсионное обслуживание по территории монастыря. Специализируется на размещении  не только паломников, но и всех желающих. \r\nТелефон 8342-28-27-02",
                "photo_author": "gostinica-makarovskaya.ru",
                "photo_path": "/trip/place/52d3ca253c274/07-img_9935.JPG",
                "information": "<p>Издавна на Руси существовала добрая традиция строить при монастырях гостиницы и принимать путешествующих. Паломнический Центр гостиница Макаровская расположена при Иоанно-Богословском мужском монастыре в 15 минутах езды от центра столицы Мордовии &ndash; Саранска; она удачно вписалась в архитектурный ансамбль Иоанно-Богословского монастыря.</p>\r\n<p>В гостинице имеется все, чтобы гостям было удобно работать и хорошо отдыхать: конференц-зал, междугородняя и международная телефонная связь и IP телефония, беспроводной Интернет WiFi, спутниковое телевидение, компьютеры, сканер и принтер для гостей, настольный теннис, бильярд, ресторан, бар, прачечная, бесплатная парковка, охраняемая автостоянка для личного и служебного автотранспорта.</p>\r\n<p>В гостинице можно провести совещание или деловую встречу, концерт, торжественные мероприятия; здесь можно заказать автотранспорт и экскурсионные программы.</p>\r\n<p>Гостиница Макаровская относится к категории 4 звезды, находится в 7 минутах езды от аэропорта и 15 минутах от железнодорожного вокзала города Саранска. Просторные, светлые и величественные холлы на этажах гостиницы создают атмосферу комфорта и радушного гостеприимства.</p>",
                "working_time": "[{\"from\":\"00:00\",\"to\":\"00:00\"},{\"from\":\"00:00\",\"to\":\"00:00\"},{\"from\":\"00:00\",\"to\":\"00:00\"},{\"from\":\"00:00\",\"to\":\"00:00\"},{\"from\":\"00:00\",\"to\":\"00:00\"},{\"from\":\"00:00\",\"to\":\"00:00\"},{\"from\":\"00:00\",\"to\":\"00:00\"}]",
                "rating": null,
                "view_count": 24,
                "recommended_count": null
            },
            {
                "id": 18,
                "name": "Гостиница \"Мирта\"",
                "address": "ул. Федосеенко, 4",
                "phone": "+7(834)247-15-96",
                "email": null,
                "website": "http://hotelmirta.ru/",
                "latitude": 54.1931,
                "longitude": 45.1853,
                "description": "Мирта - небольшая трехзвездочная гостиница, которая расположилась на тихой улице города Саранска. В фонде гостиницы номера различных категорий, оборудованные в соответствии со всеми требованиями и стандартами.",
                "photo_author": null,
                "photo_path": "/trip/place/52d3cf426d153/mirta_sa_ansk_cent_4.jpg",
                "information": null,
                "working_time": "[{\"from\":\"00:00\",\"to\":\"00:00\"},{\"from\":\"00:00\",\"to\":\"00:00\"},{\"from\":\"00:00\",\"to\":\"00:00\"},{\"from\":\"00:00\",\"to\":\"00:00\"},{\"from\":\"00:00\",\"to\":\"00:00\"},{\"from\":\"00:00\",\"to\":\"00:00\"},{\"from\":\"00:00\",\"to\":\"00:00\"}]",
                "rating": null,
                "view_count": 15,
                "recommended_count": 1
            },
            {
                "id": 19,
                "name": "Гостиничный комплекс \"Парк Отель\"",
                "address": "ул. Красноармейская, д.21",
                "phone": "+7(834)223-29-19",
                "email": "info@parkhotel-saransk.ru",
                "website": "http://parkhotel-saransk.ru/",
                "latitude": 54.1782,
                "longitude": 45.1826,
                "description": "Ресторанно-гостиничный комплекс «Парк Отель» расположен в самом центре города, рядом с парком имени А.С.Пушкина. Комфортные номера, ресторан с изысканной кухней и, конечно же, доброжелательный и чуткий к Вашим пожеланиям персонал – все подобрано для того, чтобы Вы смогли хорошо отдохнуть.\r\nТел: +7 (8342) 47-19-77 (ресторан)",
                "photo_author": null,
                "photo_path": "/trip/place/52d3d18f65410/80180.jpg",
                "information": null,
                "working_time": "[{\"from\":\"00:00\",\"to\":\"00:00\"},{\"from\":\"00:00\",\"to\":\"00:00\"},{\"from\":\"00:00\",\"to\":\"00:00\"},{\"from\":\"00:00\",\"to\":\"00:00\"},{\"from\":\"00:00\",\"to\":\"00:00\"},{\"from\":\"00:00\",\"to\":\"00:00\"},{\"from\":\"00:00\",\"to\":\"00:00\"}]",
                "rating": null,
                "view_count": 21,
                "recommended_count": null
            },
            {
                "id": 20,
                "name": "Гостиница \"Сура\"",
                "address": "ул. Полежаева д. 49",
                "phone": "+7(834)224-15-77",
                "email": "GkSura@rambler.ru",
                "website": "http://sura-hotel.ru/",
                "latitude": 54.1896,
                "longitude": 45.1874,
                "description": "Гостиница Сура расположена в центре города Саранска в 5 минутах ходьбы от ж/д вокзала и центральной площади, в 10-ти минута езды от аэропорта. Расположение гостиницы удобно как для культурного отдыха, так и для деловых встреч. Номерной фонд гостиницы состоит из 42 номеров.",
                "photo_author": null,
                "photo_path": "/trip/place/52d3d350e469b/saransk_027.jpg",
                "information": null,
                "working_time": "[{\"from\":\"00:00\",\"to\":\"00:00\"},{\"from\":\"00:00\",\"to\":\"00:00\"},{\"from\":\"00:00\",\"to\":\"00:00\"},{\"from\":\"00:00\",\"to\":\"00:00\"},{\"from\":\"00:00\",\"to\":\"00:00\"},{\"from\":\"00:00\",\"to\":\"00:00\"},{\"from\":\"00:00\",\"to\":\"00:00\"}]",
                "rating": 4,
                "view_count": 12,
                "recommended_count": null
            },
            {
                "id": 21,
                "name": "Гостиница \"Надежда\"",
                "address": "ул. Строительная, 15",
                "phone": "+7(834)230-59-50",
                "email": "nadejda.gos@mail.ru",
                "website": "http://hotel13.ru/",
                "latitude": 54.2056,
                "longitude": 45.1551,
                "description": "Гостиница \"Надежда\" находится в тихой лесопарковой зоне города. Путь до основных районов Саранска - Центра и Светотехстроя - даже на общественном транспорте занимает не более 15 минут. Рядом с гостиницей расположен спорткомплекс \"Мордовия\", в котором работают кафе, сауна, медицинский центр, проходят концерты и имеется свободный доступ к любым видам активного отдыха.",
                "photo_author": null,
                "photo_path": "/trip/place/52d3d4e009e4c/nad1.jpg",
                "information": "<p class=\"about\">Гостиница &laquo;Надежда&raquo; расположена в одном из самых благоприятных районов Саранска. Вас порадуют зеленые насаждения вокруг и близость к остановкам общественного транспорта. Добраться до центра города на автобусе можно всего за 10 минут, а на личном транспорте и того быстрее. Личное авто удобно оставить на парковке возле гостиницы.</p>\r\n<p class=\"about\">Поселиться в нашей гостинице по карману любому гостю Саранска &ndash; заказ номера стоит от 700 рублей. В &laquo;Надежде&raquo; вы сможете найти номер любой вместимости и категории &ndash; от 1 до 5 мест, от стандарта до люкса. В каждом номере, независимо от класса, есть чайник и телевизор. Любители роскоши могут забронировать номер-люкс с кондиционером, джакузи и отдельной кухней. При заездах большими группами гостиница предоставляет существенные скидки.</p>\r\n<p class=\"about\">Питание для постояльцев организовано в кухне самообслуживания, но при желании Вы можете сходить на обед в недорогую столовую рядом с гостиницей. Также неподалеку от здания находится Спортивный комплекс &laquo;Мордовия&raquo;, куда могут заглянуть любители активного досуга. Для тех, кто предпочитает остаться в номере, мы предлагаем бесплатный доступ к сети Интернет (Wi-Fi).</p>\r\n<p class=\"about\">В &laquo;Надежде&raquo;, одной из лучших гостиниц Саранска, Вас ждёт тёплый прием, вежливое обращение и высококлассное обслуживание. Добро пожаловать!</p>\r\n<ol class=\"olr c-gold lucida\" type=\"1\">\r\n<li>\r\n<p class=\"verdana c-white\">Плата за проживание в гостинице взимается в соответствии с единым расчетным часом с 12:00 часов текущих суток по местному времени.</p>\r\n</li>\r\n<li>\r\n<p class=\"verdana c-white\">от 6 до 12 часов после расчетного часа - плата за половину суток</p>\r\n</li>\r\n</ol>\r\n<p class=\"verdana c-white\">Эконом представляет собой просторный однокомнатный номер. В номере может быть одна, две или три кровати. Также имеются прикроватные тумбочки и стол для работы. Номер оснащен чайником и телевизором. Санузел и душ для этих номеров общий.</p>\r\n<p class=\"about\">Полулюкс &ndash; это двухкомнатный номер, включающий спальню и гостиную. В номере два спальных места(полутороспальные кровати) и один диван. Возможна раскладушка. Также к вашим услугам телевизор, чайник, холодильник. В каждом номере предусмотрена ванная комната.</p>\r\n<p class=\"about\">Люкс &ndash; двухкомнатный номер, также включающий спальню и гостиную. В номере есть ванная комната с джакузи. В номере двуспальная кровать и диван. В гостиной ванная комната, красивая мебель, телевизор, чайник и холодильник. Кроме того, номер оснащен кондиционером.</p>",
                "working_time": "[{\"from\":\"00:00\",\"to\":\"00:00\"},{\"from\":\"00:00\",\"to\":\"00:00\"},{\"from\":\"00:00\",\"to\":\"00:00\"},{\"from\":\"00:00\",\"to\":\"00:00\"},{\"from\":\"00:00\",\"to\":\"00:00\"},{\"from\":\"00:00\",\"to\":\"00:00\"},{\"from\":\"00:00\",\"to\":\"00:00\"}]",
                "rating": null,
                "view_count": 13,
                "recommended_count": null
            },
            {
                "id": 22,
                "name": "Гостиница \"Гостевой Дом\"",
                "address": "ул. Промышленная 2-я, дом 8, корпус В",
                "phone": "+7(834)238-00-41",
                "email": "gostevojdom52@mail.ru",
                "website": "http://gostevoydom-rm.ru/",
                "latitude": 54.2347,
                "longitude": 45.1936,
                "description": "Отель «Гостевой дом» открыл свои двери 1 января 2013 года. К вашим услугам 7 комфортабельных номеров по низким ценам: стандартные номера, комфорт, люкс, Vip-апартаменты. В каждом номере есть холодильник, телевизор, кондиционер, мини-бар. А также бильярд и сауна (вместимостью до 6 человек), гостевой бар. Гостиница имеет круглосуточную парковку снабжённую охраной.",
                "photo_author": null,
                "photo_path": "/trip/place/52d3dc3088422/slide-1.jpg",
                "information": null,
                "working_time": "[{\"from\":\"00:00\",\"to\":\"00:00\"},{\"from\":\"00:00\",\"to\":\"00:00\"},{\"from\":\"00:00\",\"to\":\"00:00\"},{\"from\":\"00:00\",\"to\":\"00:00\"},{\"from\":\"00:00\",\"to\":\"00:00\"},{\"from\":\"00:00\",\"to\":\"00:00\"},{\"from\":\"00:00\",\"to\":\"00:00\"}]",
                "rating": null,
                "view_count": 16,
                "recommended_count": 1
            },
            {
                "id": 23,
                "name": "Санаторий \"Саранский\"",
                "address": "ул. Р.Люксембург, 11",
                "phone": "+7(834)235-43-95",
                "email": "san_sar@mail.ru",
                "website": "http://saransky.ru/",
                "latitude": 54.1702,
                "longitude": 45.1212,
                "description": "Санаторий «Саранский» - это современная здравница, которая готова предложить высококачественное лечение по новейшим медицинским программам с использованием современных инновационных технологий и оздоровительный отдых для взрослых и детей",
                "photo_author": null,
                "photo_path": "/trip/place/52d3df6cde69d/70758196.jpg",
                "information": null,
                "working_time": "[{\"from\":\"00:00\",\"to\":\"00:00\"},{\"from\":\"00:00\",\"to\":\"00:00\"},{\"from\":\"00:00\",\"to\":\"00:00\"},{\"from\":\"00:00\",\"to\":\"00:00\"},{\"from\":\"00:00\",\"to\":\"00:00\"},{\"from\":\"00:00\",\"to\":\"00:00\"},{\"from\":\"00:00\",\"to\":\"00:00\"}]",
                "rating": 5,
                "view_count": 14,
                "recommended_count": 1
            }
        ]
    }
}